Source;Emin_GeV;wstart;wstop;ROI_ra_deg;ROI_dec_deg;ROI_rad_deg;Status;Av_FD;Std_FD;Av_LC
GRB_090902B;10.000000000000000;9;321;264.920000000000016;27.329999999999998;5.000000000000000;Visible;0.000000000000000;0.000000000000000;0.000000000000000
GRB_090926A;10.000000000000000;9;321;353.500000000000000;-66.359999999999999;5.000000000000000;Visible;0.000000000000000;0.000000000000000;0.000000000000000
GRB_130427A;10.000000000000000;256;256;174.150000000000006;28.690000000000001;2.500000000000000;Visible;0.067216238179495;0.055885879879467;0.000000094733245
GRB_180720B;1.000000000000000;520;546;0.531700000000000;-2.935000000000000;5.000000000000000;Visible;0.000000000000000;0.000000000000000;0.000000000000000
PSR_B1259-63;10.000000000000000;9;-1;195.699999999999989;-63.799999999999997;5.000000000000000;Tests;0.000000000000000;0.000000000000000;0.000000000000000
PG_1553+113;10.000000000000000;9;250;238.900000000000006;11.199999999999999;5.000000000000000;Tests;0.000011982300000;0.000009977750000;0.000000004256560
ON_246;10.000000000000000;350;-1;187.550000000000011;25.283000000000001;5.000000000000000;Tests;0.000033050504087;0.000186582954247;0.000000002200524
PKS_0447-439;10.000000000000000;-12;-1;72.367000000000004;-43.829999999999998;2.500000000000000;Tests;0.000000000000000;0.000000000000000;0.000000000000000
PG_1218+304;10.000000000000000;800;753875452;185.359000000000009;30.190999999999999;2.500000000000000;Test;0.000004742231861;0.000003309151047;0.000000001404713
4C_5627;10.000000000000000;800;861;276.069999999999993;56.759999999999998;2.500000000000000;Test;0.000027933263887;0.000047658945291;0.000000000613789
OP_313;1.000000000000000;9;12;197.619000000000000;32.344999999999999;2.500000000000000;Test;0.000055831677077;0.000029468360976;0.000000023199598
1ES_0806+524;10.000000000000000;830;861;122.495000000000005;52.317000000000000;2.500000000000000;Test;0.000006829635631;0.000009242521112;0.000000000846403
