{
    "mainfolder": "/home/pmgunix/pmg-home/FermiLAT",
    "mainfolder_ImgAndTemp": "/home/pmgunix/pmg-home/FermiLAT",
    "datadir": "/home/pmgunix/pmg-home/FermiLAT/Data",
    "imgdir": "/home/pmgunix/pmg-home/FermiLAT/Images",
    "tempdir": "/home/pmgunix/pmg-home/FermiLAT/Tempfiles",
    "dataSCdir": "/home/pmgunix/pmg-home/FermiLAT/Data/LAT_weekly_spacecraft/weekly/spacecraft/",
    "dataPHdir": "/home/pmgunix/pmg-home/FermiLAT/Data/LAT_weekly_photons/weekly/photon/",
    "catalogdir": "/home/pmgunix/pmg-home/FermiLAT/Data/Catalogs",
    "catalog_file_4FGL": "/home/pmgunix/pmg-home/FermiLAT/Data/Catalogs/gll_psc_v35.fit",
    "catalog_file_4FGL_xml": "/home/pmgunix/pmg-home/FermiLAT/Data/Catalogs/gll_psc_v32.xml",
    "catalog_file_4FGL_reg": "/home/pmgunix/pmg-home/FermiLAT/Data/Catalogs/gll_psc_v32.reg",
    "catalog_file_4FGL_regAssoc": "/home/pmgunix/pmg-home/FermiLAT/Data/Catalogs/gll_psc_v35_assoc.reg",
    "catalog_file_3FHL": "/home/pmgunix/pmg-home/FermiLAT/Data/Catalogs/gll_psch_v13.fit",
    "catalog_file_3FHL_xml": "/home/pmgunix/pmg-home/FermiLAT/Data/Catalogs/gll_psch_v12.xml",
    "catalog_file_3FHL_reg": "/home/pmgunix/pmg-home/FermiLAT/Data/Catalogs/gll_psch_v12.reg",
    "catalog_file_3FHL_regAssoc": "/home/pmgunix/pmg-home/FermiLAT/Data/Catalogs/gll_psch_v12_assoc.reg",
    "catalog_templates_3FHL_extended_dir": "/home/pmgunix/pmg-home/FermiLAT/Data/Catalogs/Extended_archive_v18",
    "catalog_templates_3FHL_extended_file": "/home/pmgunix/pmg-home/FermiLAT/Data/Catalogs/Extended_archive_v18/LAT_extended_sources_v18.fits",
    "catalog_file_2FGES_fits": "/home/pmgunix/pmg-home/FermiLAT/Data/Catalogs/2FGES_table2.fits"
}